…
Extra examples : Non spatial > data exploration `tidy-style`
========================================================

summarize and ...


```r
# summarize
df %>% 
  group_by(maand,var1) %>%
  summarize(median_var2=median(var2))
```

```
# A tibble: 48 x 3
# Groups:   maand [?]
   maand var1  median_var2
   <chr> <fct>       <dbl>
 1 01    A           0.515
 2 01    B           0.575
 3 01    C           0.422
 4 01    D           0.502
 5 02    A           0.479
 6 02    B           0.660
 7 02    C           0.493
 8 02    D           0.460
 9 03    A           0.462
10 03    B           0.483
# ... with 38 more rows
```
…
